…
## Example

Split your Rmd or Qmd file into a tibble:

``` r
library(lightparser)

file <- system.file(
  "dev-template-parsing.Rmd",
  package = "lightparser"
)
tbl_rmd <- split_to_tbl(file)
tbl_rmd
#> # A tibble: 35 × 6
#>    type    label       params           text         code       heading         
#>    <chr>   <chr>       <list>           <named list> <list>     <chr>           
#>  1 yaml    <NA>        <named list [5]> <lgl [1]>    <lgl [1]>  <NA>            
#>  2 inline  <NA>        <lgl [1]>        <chr [0]>    <lgl [1]>  <NA>            
#>  3 block   development <named list [2]> <lgl [1]>    <chr [1]>  <NA>            
#>  4 inline  <NA>        <lgl [1]>        <chr [2]>    <lgl [1]>  <NA>            
#>  5 heading <NA>        <lgl [1]>        <chr [1]>    <lgl [1]>  Description of …
#>  6 inline  <NA>        <lgl [1]>        <chr [3]>    <lgl [1]>  <NA>            
#>  7 block   description <named list [1]> <lgl [1]>    <chr [13]> <NA>            
#>  8 inline  <NA>        <lgl [1]>        <chr [1]>    <lgl [1]>  <NA>            
#>  9 heading <NA>        <lgl [1]>        <chr [1]>    <lgl [1]>  Read data       
#> 10 inline  <NA>        <lgl [1]>        <chr [5]>    <lgl [1]>  <NA>            
#> # ℹ 25 more rows
```
…
